{
    "identifier": "1886791264",
    "version": "v1",
    "zone": "America/Guayaquil",
    "referenceNumber": "20180904-1886791264",
    "state": "Complete",
    "deviceSubmitDate": {
        "time": "2018-09-04T16:50:25-05:00",
        "zone": "America/Guayaquil"
    },
    "shiftedDeviceSubmitDate": "2018-09-04T16:50:25-05:00",
    "serverReceiveDate": "2018-09-04T16:50:31-05:00",
    "form": {
        "identifier": "146136014",
        "versionIdentifier": "157318171",
        "name": "Reporte de Pistas 2",
        "version": 1,
        "formSpaceIdentifier": "192774006",
        "formSpaceName": "PISTAS"
    },
    "user": {
        "identifier": "134040006",
        "username": "demo_orodelti",
        "displayName": "demo_orodelti"
    },
    "dispatcher": null,
    "geoStamp": {
        "success": true,
        "captureTimestamp": {
            "provided": {
                "time": "2018-09-04T16:50:17-05:00",
                "zone": "America/Guayaquil"
            },
            "shifted": "2018-09-04T16:50:17-05:00"
        },
        "errorMessage": null,
        "source": "Network",
        "coordinates": {
            "latitude": -2.1758288,
            "longitude": -79.9069636,
            "altitude": 33.7
        },
        "address": "Calle Única, Guayaquil 090511, Ecuador",
        "addressDetails": {
            "source": "Google",
            "components": [
                {
                    "shortName": "Calle Única",
                    "longName": "Calle Única",
                    "types": [
                        "route"
                    ]
                },
                {
                    "shortName": "Urdesa",
                    "longName": "Urdesa",
                    "types": [
                        "political",
                        "sublocality",
                        "sublocality_level_1"
                    ]
                },
                {
                    "shortName": "Guayaquil",
                    "longName": "Guayaquil",
                    "types": [
                        "locality",
                        "political"
                    ]
                },
                {
                    "shortName": "Guayas",
                    "longName": "Guayas",
                    "types": [
                        "administrative_area_level_1",
                        "political"
                    ]
                },
                {
                    "shortName": "EC",
                    "longName": "Ecuador",
                    "types": [
                        "country",
                        "political"
                    ]
                },
                {
                    "shortName": "090511",
                    "longName": "090511",
                    "types": [
                        "postal_code"
                    ]
                }
            ]
        }
    },
    "pages": [
        {
            "name": "Encabezado",
            "answers": [
                {
                    "label": "Geolocalizacion",
                    "dataType": "GeoLocation",
                    "question": "Geolocalizacion",
                    "values": [
                        {
                            "success": true,
                            "captureTimestamp": {
                                "provided": {
                                    "time": "2018-09-04T16:48:31-05:00",
                                    "zone": "America/Guayaquil"
                                },
                                "shifted": "2018-09-04T16:48:31-05:00"
                            },
                            "errorMessage": null,
                            "source": "Network",
                            "coordinates": {
                                "latitude": -2.175825,
                                "longitude": -79.9069514,
                                "altitude": 33.7
                            },
                            "address": "Calle Única, Guayaquil 090511, Ecuador",
                            "addressDetails": {
                                "source": "Google",
                                "components": [
                                    {
                                        "shortName": "Calle Única",
                                        "longName": "Calle Única",
                                        "types": [
                                            "route"
                                        ]
                                    },
                                    {
                                        "shortName": "Urdesa",
                                        "longName": "Urdesa",
                                        "types": [
                                            "political",
                                            "sublocality",
                                            "sublocality_level_1"
                                        ]
                                    },
                                    {
                                        "shortName": "Guayaquil",
                                        "longName": "Guayaquil",
                                        "types": [
                                            "locality",
                                            "political"
                                        ]
                                    },
                                    {
                                        "shortName": "Guayas",
                                        "longName": "Guayas",
                                        "types": [
                                            "administrative_area_level_1",
                                            "political"
                                        ]
                                    },
                                    {
                                        "shortName": "EC",
                                        "longName": "Ecuador",
                                        "types": [
                                            "country",
                                            "political"
                                        ]
                                    },
                                    {
                                        "shortName": "090511",
                                        "longName": "090511",
                                        "types": [
                                            "postal_code"
                                        ]
                                    }
                                ]
                            }
                        }
                    ]
                },
                {
                    "label": "Fecha Programación",
                    "dataType": "Date",
                    "question": "Fecha Programación",
                    "values": [
                        "2018-09-04"
                    ]
                },
                {
                    "label": "Fecha Real",
                    "dataType": "Date",
                    "question": "Fecha Real",
                    "values": [
                        "2018-09-04"
                    ]
                },
                {
                    "label": "Hora",
                    "dataType": "Time",
                    "question": "Hora",
                    "values": [
                        {
                            "provided": {
                                "time": "16:49:11-05:00",
                                "zone": "America/Guayaquil"
                            },
                            "shifted": "16:49:11-05:00"
                        }
                    ]
                },
                {
                    "label": "Finca",
                    "dataType": "FreeText",
                    "question": "Finca",
                    "values": [
                        "DELIA GRACE"
                    ]
                },
                {
                    "label": "Finca - id",
                    "dataType": "FreeText",
                    "question": "Finca - id",
                    "values": [
                        "49"
                    ]
                },
                {
                    "label": "Sector",
                    "dataType": "FreeText",
                    "question": "Sector",
                    "values": [
                        "B"
                    ]
                },
                {
                    "label": "hect_1",
                    "dataType": "Decimal",
                    "question": "hect_1",
                    "values": [
                        "80"
                    ]
                },
                {
                    "label": "Sector 2",
                    "dataType": "FreeText",
                    "question": "Sector 2",
                    "values": [
                        "C"
                    ]
                },
                {
                    "label": "hect_2",
                    "dataType": "Decimal",
                    "question": "hect_2",
                    "values": [
                        "75"
                    ]
                },
                {
                    "label": "Sector 3",
                    "dataType": "FreeText",
                    "question": "Sector 3",
                    "values": []
                },
                {
                    "label": "hect_3",
                    "dataType": "Decimal",
                    "question": "hect_3",
                    "values": []
                },
                {
                    "label": "Sector 4",
                    "dataType": "FreeText",
                    "question": "Sector 4",
                    "values": []
                },
                {
                    "label": "hect_4",
                    "dataType": "Decimal",
                    "question": "hect_4",
                    "values": []
                },
                {
                    "label": "Sector 5",
                    "dataType": "FreeText",
                    "question": "Sector 5",
                    "values": []
                },
                {
                    "label": "hect_5",
                    "dataType": "Decimal",
                    "question": "hect_5",
                    "values": []
                },
                {
                    "label": "Hárdfón",
                    "dataType": "Decimal",
                    "question": "Hectáreas de fumigación",
                    "values": [
                        "155"
                    ]
                },
                {
                    "label": "Notificación",
                    "dataType": "FreeText",
                    "question": "Notificación",
                    "values": [
                        "Si"
                    ]
                },
                {
                    "label": "Tipo de Ciclo",
                    "dataType": "FreeText",
                    "question": "Tipo de Ciclo",
                    "values": [
                        "Ciclo"
                    ]
                },
                {
                    "label": "Ciclo #",
                    "dataType": "Integer",
                    "question": "Ciclo #",
                    "values": [
                        "39"
                    ],
                    "selectOptions": [
                        {
                            "selected": false,
                            "other": false,
                            "value": "1"
                        },
                        {
                            "selected": false,
                            "other": false,
                            "value": "2"
                        },
                        {
                            "selected": false,
                            "other": false,
                            "value": "3"
                        },
                        {
                            "selected": false,
                            "other": false,
                            "value": "4"
                        },
                        {
                            "selected": false,
                            "other": false,
                            "value": "5"
                        },
                        {
                            "selected": false,
                            "other": false,
                            "value": "6"
                        },
                        {
                            "selected": false,
                            "other": false,
                            "value": "7"
                        },
                        {
                            "selected": false,
                            "other": false,
                            "value": "8"
                        },
                        {
                            "selected": false,
                            "other": false,
                            "value": "9"
                        },
                        {
                            "selected": false,
                            "other": false,
                            "value": "10"
                        },
                        {
                            "selected": false,
                            "other": false,
                            "value": "11"
                        },
                        {
                            "selected": false,
                            "other": false,
                            "value": "12"
                        },
                        {
                            "selected": false,
                            "other": false,
                            "value": "13"
                        },
                        {
                            "selected": false,
                            "other": false,
                            "value": "14"
                        },
                        {
                            "selected": false,
                            "other": false,
                            "value": "15"
                        },
                        {
                            "selected": false,
                            "other": false,
                            "value": "16"
                        },
                        {
                            "selected": false,
                            "other": false,
                            "value": "17"
                        },
                        {
                            "selected": false,
                            "other": false,
                            "value": "18"
                        },
                        {
                            "selected": false,
                            "other": false,
                            "value": "19"
                        },
                        {
                            "selected": false,
                            "other": false,
                            "value": "20"
                        },
                        {
                            "selected": false,
                            "other": false,
                            "value": "21"
                        },
                        {
                            "selected": false,
                            "other": false,
                            "value": "22"
                        },
                        {
                            "selected": false,
                            "other": false,
                            "value": "23"
                        },
                        {
                            "selected": false,
                            "other": false,
                            "value": "24"
                        },
                        {
                            "selected": false,
                            "other": false,
                            "value": "25"
                        },
                        {
                            "selected": false,
                            "other": false,
                            "value": "26"
                        },
                        {
                            "selected": false,
                            "other": false,
                            "value": "27"
                        },
                        {
                            "selected": false,
                            "other": false,
                            "value": "28"
                        },
                        {
                            "selected": false,
                            "other": false,
                            "value": "29"
                        },
                        {
                            "selected": false,
                            "other": false,
                            "value": "30"
                        },
                        {
                            "selected": false,
                            "other": false,
                            "value": "31"
                        },
                        {
                            "selected": false,
                            "other": false,
                            "value": "32"
                        },
                        {
                            "selected": false,
                            "other": false,
                            "value": "33"
                        },
                        {
                            "selected": false,
                            "other": false,
                            "value": "34"
                        },
                        {
                            "selected": false,
                            "other": false,
                            "value": "35"
                        },
                        {
                            "selected": false,
                            "other": false,
                            "value": "36"
                        },
                        {
                            "selected": false,
                            "other": false,
                            "value": "37"
                        },
                        {
                            "selected": false,
                            "other": false,
                            "value": "38"
                        },
                        {
                            "selected": true,
                            "other": false,
                            "value": "39"
                        }
                    ]
                },
                {
                    "label": "Fumigadora",
                    "dataType": "FreeText",
                    "question": "Fumigadora",
                    "values": [
                        "FUMIPALMA"
                    ]
                },
                {
                    "label": "Fumigadora - id",
                    "dataType": "FreeText",
                    "question": "Fumigadora - id",
                    "values": [
                        "2"
                    ]
                },
                {
                    "label": "FINCA FUMIGADORA",
                    "dataType": "FreeText",
                    "question": "FINCA FUMIGADORA",
                    "values": [
                        "FUM2-FIN49"
                    ]
                },
                {
                    "label": "Galones",
                    "dataType": "FreeText",
                    "question": "Galones",
                    "values": [
                        "5"
                    ]
                },
                {
                    "label": "Precio operación",
                    "dataType": "Decimal",
                    "question": "Precio operación",
                    "values": [
                        "10.7"
                    ]
                },
                {
                    "label": "Agua (Dosis)",
                    "dataType": "Decimal",
                    "question": "Agua (Dosis)",
                    "values": [
                        "2"
                    ],
                    "selectOptions": [
                        {
                            "selected": true,
                            "other": false,
                            "value": "1"
                        },
                        {
                            "selected": false,
                            "other": false,
                            "value": "2"
                        },
                        {
                            "selected": false,
                            "other": false,
                            "value": "3"
                        },
                        {
                            "selected": false,
                            "other": false,
                            "value": "4"
                        },
                        {
                            "selected": false,
                            "other": false,
                            "value": "5"
                        }
                    ]
                },
                {
                    "label": "Piloto",
                    "dataType": "FreeText",
                    "question": "Piloto",
                    "values": [
                        "Walter Macias"
                    ]
                },
                {
                    "label": "Piloto - id",
                    "dataType": "FreeText",
                    "question": "Piloto - id",
                    "values": [
                        "1"
                    ]
                },
                {
                    "label": "Placa avión",
                    "dataType": "FreeText",
                    "question": "Placa avión",
                    "values": [
                        "HC-CGM"
                    ]
                },
                {
                    "label": "Piloto - id_placa",
                    "dataType": "FreeText",
                    "question": "Piloto - id_placa",
                    "values": [
                        "12"
                    ]
                },
                {
                    "label": "Hora de salida",
                    "dataType": "Time",
                    "question": "Hora de salida",
                    "values": [
                        {
                            "provided": {
                                "time": "16:49:00-05:00",
                                "zone": "America/Guayaquil"
                            },
                            "shifted": "16:49:00-05:00"
                        }
                    ]
                },
                {
                    "label": "Hora de llegada",
                    "dataType": "Time",
                    "question": "Hora de llegada",
                    "values": [
                        {
                            "provided": {
                                "time": "16:49:00-05:00",
                                "zone": "America/Guayaquil"
                            },
                            "shifted": "16:49:00-05:00"
                        }
                    ]
                },
                {
                    "label": "Motivo de atraso",
                    "dataType": "FreeText",
                    "question": "Motivo de atraso",
                    "values": [
                        "Normal"
                    ]
                }
            ]
        },
        {
            "name": "Producto 1",
            "answers": [
                {
                    "label": "Proveedor 1",
                    "dataType": "FreeText",
                    "question": "Proveedor",
                    "values": [
                        "Agripac"
                    ]
                },
                {
                    "label": "ID PROVEEDOR",
                    "dataType": "FreeText",
                    "question": "ID PROVEEDOR",
                    "values": [
                        "1"
                    ]
                },
                {
                    "label": "Producto 1",
                    "dataType": "FreeText",
                    "question": "Producto",
                    "values": [
                        "DIPEL"
                    ]
                },
                {
                    "label": "ID PRODUCTO",
                    "dataType": "FreeText",
                    "question": "ID PRODUCTO",
                    "values": [
                        "45"
                    ]
                },
                {
                    "label": "Tipo de producto",
                    "dataType": "FreeText",
                    "question": "Tipo de producto",
                    "values": [
                        "Insecticida"
                    ]
                },
                {
                    "label": "Dosis 1",
                    "dataType": "Decimal",
                    "question": "Dosis",
                    "values": [
                        "1"
                    ]
                },
                {
                    "label": "Captura de fotos 1",
                    "dataType": "Image",
                    "question": "Captura de fotos",
                    "values": []
                },
                {
                    "label": "Observaciones 1",
                    "dataType": "FreeText",
                    "question": "Observaciones",
                    "values": []
                },
                {
                    "label": "Aop? 1",
                    "dataType": "FreeText",
                    "question": "Agregar otro producto?",
                    "values": [
                        "Si"
                    ],
                    "selectOptions": [
                        {
                            "selected": true,
                            "other": false,
                            "value": "Si"
                        },
                        {
                            "selected": false,
                            "other": false,
                            "value": "No"
                        }
                    ]
                }
            ]
        },
        {
            "name": "Producto 2",
            "answers": [
                {
                    "label": "Proveedor 14",
                    "dataType": "FreeText",
                    "question": "Proveedor",
                    "values": [
                        "Agrow"
                    ]
                },
                {
                    "label": "ID PROVEEDOR 14",
                    "dataType": "FreeText",
                    "question": "ID PROVEEDOR",
                    "values": [
                        "3"
                    ]
                },
                {
                    "label": "Producto 14",
                    "dataType": "FreeText",
                    "question": "Producto",
                    "values": [
                        "BB5"
                    ]
                },
                {
                    "label": "ID PRODUCTO 14",
                    "dataType": "FreeText",
                    "question": "ID PRODUCTO",
                    "values": [
                        "123"
                    ]
                },
                {
                    "label": "Tipo de producto 14",
                    "dataType": "FreeText",
                    "question": "Tipo de producto",
                    "values": [
                        "Coadyuvante"
                    ]
                },
                {
                    "label": "Dosis 14",
                    "dataType": "Decimal",
                    "question": "Dosis",
                    "values": [
                        "0.02"
                    ]
                },
                {
                    "label": "Captura de fotos 14",
                    "dataType": "Image",
                    "question": "Captura de fotos",
                    "values": []
                },
                {
                    "label": "Observaciones 14",
                    "dataType": "FreeText",
                    "question": "Observaciones",
                    "values": []
                },
                {
                    "label": "Aop? 14",
                    "dataType": "FreeText",
                    "question": "Agregar otro producto?",
                    "values": [
                        "No"
                    ],
                    "selectOptions": [
                        {
                            "selected": true,
                            "other": false,
                            "value": "Si"
                        },
                        {
                            "selected": false,
                            "other": false,
                            "value": "No"
                        }
                    ]
                }
            ]
        },
        {
            "name": "Producto 3",
            "answers": [
                {
                    "label": "Proveedor 13",
                    "dataType": "FreeText",
                    "question": "Proveedor",
                    "values": []
                },
                {
                    "label": "ID PROVEEDOR 13",
                    "dataType": "FreeText",
                    "question": "ID PROVEEDOR",
                    "values": []
                },
                {
                    "label": "Producto 13",
                    "dataType": "FreeText",
                    "question": "Producto",
                    "values": []
                },
                {
                    "label": "ID PRODUCTO 13",
                    "dataType": "FreeText",
                    "question": "ID PRODUCTO",
                    "values": []
                },
                {
                    "label": "Tipo de producto 13",
                    "dataType": "FreeText",
                    "question": "Tipo de producto",
                    "values": []
                },
                {
                    "label": "Dosis 13",
                    "dataType": "Decimal",
                    "question": "Dosis",
                    "values": []
                },
                {
                    "label": "Captura de fotos 13",
                    "dataType": "Image",
                    "question": "Captura de fotos",
                    "values": []
                },
                {
                    "label": "Observaciones 13",
                    "dataType": "FreeText",
                    "question": "Observaciones",
                    "values": []
                },
                {
                    "label": "Aop? 13",
                    "dataType": "FreeText",
                    "question": "Agregar otro producto?",
                    "values": [
                        "No"
                    ],
                    "selectOptions": [
                        {
                            "selected": false,
                            "other": false,
                            "value": "Si"
                        },
                        {
                            "selected": true,
                            "other": false,
                            "value": "No"
                        }
                    ]
                }
            ]
        },
        {
            "name": "Producto 4",
            "answers": [
                {
                    "label": "Proveedor 12",
                    "dataType": "FreeText",
                    "question": "Proveedor",
                    "values": []
                },
                {
                    "label": "ID PROVEEDOR 12",
                    "dataType": "FreeText",
                    "question": "ID PROVEEDOR",
                    "values": []
                },
                {
                    "label": "Producto 12",
                    "dataType": "FreeText",
                    "question": "Producto",
                    "values": []
                },
                {
                    "label": "ID PRODUCTO 12",
                    "dataType": "FreeText",
                    "question": "ID PRODUCTO",
                    "values": []
                },
                {
                    "label": "Tipo de producto 12",
                    "dataType": "FreeText",
                    "question": "Tipo de producto",
                    "values": []
                },
                {
                    "label": "Dosis 12",
                    "dataType": "Decimal",
                    "question": "Dosis",
                    "values": []
                },
                {
                    "label": "Captura de fotos 12",
                    "dataType": "Image",
                    "question": "Captura de fotos",
                    "values": []
                },
                {
                    "label": "Observaciones 12",
                    "dataType": "FreeText",
                    "question": "Observaciones",
                    "values": []
                },
                {
                    "label": "Aop? 12",
                    "dataType": "FreeText",
                    "question": "Agregar otro producto?",
                    "values": [],
                    "selectOptions": [
                        {
                            "selected": false,
                            "other": false,
                            "value": "Si"
                        },
                        {
                            "selected": false,
                            "other": false,
                            "value": "No"
                        }
                    ]
                }
            ]
        },
        {
            "name": "Producto 5",
            "answers": [
                {
                    "label": "Proveedor 11",
                    "dataType": "FreeText",
                    "question": "Proveedor",
                    "values": []
                },
                {
                    "label": "ID PROVEEDOR 11",
                    "dataType": "FreeText",
                    "question": "ID PROVEEDOR",
                    "values": []
                },
                {
                    "label": "Producto 11",
                    "dataType": "FreeText",
                    "question": "Producto",
                    "values": []
                },
                {
                    "label": "ID PRODUCTO 11",
                    "dataType": "FreeText",
                    "question": "ID PRODUCTO",
                    "values": []
                },
                {
                    "label": "Tipo de producto 11",
                    "dataType": "FreeText",
                    "question": "Tipo de producto",
                    "values": []
                },
                {
                    "label": "Dosis 11",
                    "dataType": "Decimal",
                    "question": "Dosis",
                    "values": []
                },
                {
                    "label": "Captura de fotos 11",
                    "dataType": "Image",
                    "question": "Captura de fotos",
                    "values": []
                },
                {
                    "label": "Observaciones 11",
                    "dataType": "FreeText",
                    "question": "Observaciones",
                    "values": []
                },
                {
                    "label": "Aop? 11",
                    "dataType": "FreeText",
                    "question": "Agregar otro producto?",
                    "values": [],
                    "selectOptions": [
                        {
                            "selected": false,
                            "other": false,
                            "value": "Si"
                        },
                        {
                            "selected": false,
                            "other": false,
                            "value": "No"
                        }
                    ]
                }
            ]
        },
        {
            "name": "Producto 6",
            "answers": [
                {
                    "label": "Proveedor 10",
                    "dataType": "FreeText",
                    "question": "Proveedor",
                    "values": []
                },
                {
                    "label": "ID PROVEEDOR 10",
                    "dataType": "FreeText",
                    "question": "ID PROVEEDOR",
                    "values": []
                },
                {
                    "label": "Producto 10",
                    "dataType": "FreeText",
                    "question": "Producto",
                    "values": []
                },
                {
                    "label": "ID PRODUCTO 10",
                    "dataType": "FreeText",
                    "question": "ID PRODUCTO",
                    "values": []
                },
                {
                    "label": "Tipo de producto 10",
                    "dataType": "FreeText",
                    "question": "Tipo de producto",
                    "values": []
                },
                {
                    "label": "Dosis 10",
                    "dataType": "Decimal",
                    "question": "Dosis",
                    "values": []
                },
                {
                    "label": "Captura de fotos 10",
                    "dataType": "Image",
                    "question": "Captura de fotos",
                    "values": []
                },
                {
                    "label": "Observaciones 10",
                    "dataType": "FreeText",
                    "question": "Observaciones",
                    "values": []
                },
                {
                    "label": "Aop? 10",
                    "dataType": "FreeText",
                    "question": "Agregar otro producto?",
                    "values": [],
                    "selectOptions": [
                        {
                            "selected": false,
                            "other": false,
                            "value": "Si"
                        },
                        {
                            "selected": false,
                            "other": false,
                            "value": "No"
                        }
                    ]
                }
            ]
        },
        {
            "name": "Producto 7",
            "answers": [
                {
                    "label": "Proveedor 9",
                    "dataType": "FreeText",
                    "question": "Proveedor",
                    "values": []
                },
                {
                    "label": "ID PROVEEDOR 9",
                    "dataType": "FreeText",
                    "question": "ID PROVEEDOR",
                    "values": []
                },
                {
                    "label": "Producto 9",
                    "dataType": "FreeText",
                    "question": "Producto",
                    "values": []
                },
                {
                    "label": "ID PRODUCTO 9",
                    "dataType": "FreeText",
                    "question": "ID PRODUCTO",
                    "values": []
                },
                {
                    "label": "Tipo de producto 9",
                    "dataType": "FreeText",
                    "question": "Tipo de producto",
                    "values": []
                },
                {
                    "label": "Dosis 9",
                    "dataType": "Decimal",
                    "question": "Dosis",
                    "values": []
                },
                {
                    "label": "Captura de fotos 9",
                    "dataType": "Image",
                    "question": "Captura de fotos",
                    "values": []
                },
                {
                    "label": "Observaciones 9",
                    "dataType": "FreeText",
                    "question": "Observaciones",
                    "values": []
                },
                {
                    "label": "Aop? 9",
                    "dataType": "FreeText",
                    "question": "Agregar otro producto?",
                    "values": [],
                    "selectOptions": [
                        {
                            "selected": false,
                            "other": false,
                            "value": "Si"
                        },
                        {
                            "selected": false,
                            "other": false,
                            "value": "No"
                        }
                    ]
                }
            ]
        },
        {
            "name": "Producto 8",
            "answers": [
                {
                    "label": "Proveedor 8",
                    "dataType": "FreeText",
                    "question": "Proveedor",
                    "values": []
                },
                {
                    "label": "ID PROVEEDOR 8",
                    "dataType": "FreeText",
                    "question": "ID PROVEEDOR",
                    "values": []
                },
                {
                    "label": "Producto 8",
                    "dataType": "FreeText",
                    "question": "Producto",
                    "values": []
                },
                {
                    "label": "ID PRODUCTO 8",
                    "dataType": "FreeText",
                    "question": "ID PRODUCTO",
                    "values": []
                },
                {
                    "label": "Tipo de producto 8",
                    "dataType": "FreeText",
                    "question": "Tipo de producto",
                    "values": []
                },
                {
                    "label": "Dosis 8",
                    "dataType": "Decimal",
                    "question": "Dosis",
                    "values": []
                },
                {
                    "label": "Captura de fotos 8",
                    "dataType": "Image",
                    "question": "Captura de fotos",
                    "values": []
                },
                {
                    "label": "Observaciones 8",
                    "dataType": "FreeText",
                    "question": "Observaciones",
                    "values": []
                },
                {
                    "label": "Aop? 8",
                    "dataType": "FreeText",
                    "question": "Agregar otro producto?",
                    "values": [],
                    "selectOptions": [
                        {
                            "selected": false,
                            "other": false,
                            "value": "Si"
                        },
                        {
                            "selected": false,
                            "other": false,
                            "value": "No"
                        }
                    ]
                }
            ]
        },
        {
            "name": "Producto 9",
            "answers": [
                {
                    "label": "Proveedor 7",
                    "dataType": "FreeText",
                    "question": "Proveedor",
                    "values": []
                },
                {
                    "label": "ID PROVEEDOR 7",
                    "dataType": "FreeText",
                    "question": "ID PROVEEDOR",
                    "values": []
                },
                {
                    "label": "Producto 7",
                    "dataType": "FreeText",
                    "question": "Producto",
                    "values": []
                },
                {
                    "label": "ID PRODUCTO 7",
                    "dataType": "FreeText",
                    "question": "ID PRODUCTO",
                    "values": []
                },
                {
                    "label": "Tipo de producto 7",
                    "dataType": "FreeText",
                    "question": "Tipo de producto",
                    "values": []
                },
                {
                    "label": "Dosis 7",
                    "dataType": "Decimal",
                    "question": "Dosis",
                    "values": []
                },
                {
                    "label": "Captura de fotos 7",
                    "dataType": "Image",
                    "question": "Captura de fotos",
                    "values": []
                },
                {
                    "label": "Observaciones 7",
                    "dataType": "FreeText",
                    "question": "Observaciones",
                    "values": []
                },
                {
                    "label": "Aop? 7",
                    "dataType": "FreeText",
                    "question": "Agregar otro producto?",
                    "values": [],
                    "selectOptions": [
                        {
                            "selected": false,
                            "other": false,
                            "value": "Si"
                        },
                        {
                            "selected": false,
                            "other": false,
                            "value": "No"
                        }
                    ]
                }
            ]
        },
        {
            "name": "Producto 10",
            "answers": [
                {
                    "label": "Proveedor 6",
                    "dataType": "FreeText",
                    "question": "Proveedor",
                    "values": []
                },
                {
                    "label": "ID PROVEEDOR 6",
                    "dataType": "FreeText",
                    "question": "ID PROVEEDOR",
                    "values": []
                },
                {
                    "label": "Producto 6",
                    "dataType": "FreeText",
                    "question": "Producto",
                    "values": []
                },
                {
                    "label": "ID PRODUCTO 6",
                    "dataType": "FreeText",
                    "question": "ID PRODUCTO",
                    "values": []
                },
                {
                    "label": "Tipo de producto 6",
                    "dataType": "FreeText",
                    "question": "Tipo de producto",
                    "values": []
                },
                {
                    "label": "Dosis 6",
                    "dataType": "Decimal",
                    "question": "Dosis",
                    "values": []
                },
                {
                    "label": "Captura de fotos 6",
                    "dataType": "Image",
                    "question": "Captura de fotos",
                    "values": []
                },
                {
                    "label": "Observaciones 6",
                    "dataType": "FreeText",
                    "question": "Observaciones",
                    "values": []
                },
                {
                    "label": "Aop? 6",
                    "dataType": "FreeText",
                    "question": "Agregar otro producto?",
                    "values": [],
                    "selectOptions": [
                        {
                            "selected": false,
                            "other": false,
                            "value": "Si"
                        },
                        {
                            "selected": false,
                            "other": false,
                            "value": "No"
                        }
                    ]
                }
            ]
        },
        {
            "name": "Producto 11",
            "answers": [
                {
                    "label": "Proveedor 5",
                    "dataType": "FreeText",
                    "question": "Proveedor",
                    "values": []
                },
                {
                    "label": "ID PROVEEDOR 5",
                    "dataType": "FreeText",
                    "question": "ID PROVEEDOR",
                    "values": []
                },
                {
                    "label": "Producto 5",
                    "dataType": "FreeText",
                    "question": "Producto",
                    "values": []
                },
                {
                    "label": "ID PRODUCTO 5",
                    "dataType": "FreeText",
                    "question": "ID PRODUCTO",
                    "values": []
                },
                {
                    "label": "Tipo de producto 5",
                    "dataType": "FreeText",
                    "question": "Tipo de producto",
                    "values": []
                },
                {
                    "label": "Dosis 5",
                    "dataType": "Decimal",
                    "question": "Dosis",
                    "values": []
                },
                {
                    "label": "Captura de fotos 5",
                    "dataType": "Image",
                    "question": "Captura de fotos",
                    "values": []
                },
                {
                    "label": "Observaciones 5",
                    "dataType": "FreeText",
                    "question": "Observaciones",
                    "values": []
                },
                {
                    "label": "Aop? 5",
                    "dataType": "FreeText",
                    "question": "Agregar otro producto?",
                    "values": [],
                    "selectOptions": [
                        {
                            "selected": false,
                            "other": false,
                            "value": "Si"
                        },
                        {
                            "selected": false,
                            "other": false,
                            "value": "No"
                        }
                    ]
                }
            ]
        },
        {
            "name": "Producto 12",
            "answers": [
                {
                    "label": "Proveedor 4",
                    "dataType": "FreeText",
                    "question": "Proveedor",
                    "values": []
                },
                {
                    "label": "ID PROVEEDOR 4",
                    "dataType": "FreeText",
                    "question": "ID PROVEEDOR",
                    "values": []
                },
                {
                    "label": "Producto 4",
                    "dataType": "FreeText",
                    "question": "Producto",
                    "values": []
                },
                {
                    "label": "ID PRODUCTO 4",
                    "dataType": "FreeText",
                    "question": "ID PRODUCTO",
                    "values": []
                },
                {
                    "label": "Tipo de producto 4",
                    "dataType": "FreeText",
                    "question": "Tipo de producto",
                    "values": []
                },
                {
                    "label": "Dosis 4",
                    "dataType": "Decimal",
                    "question": "Dosis",
                    "values": []
                },
                {
                    "label": "Captura de fotos 4",
                    "dataType": "Image",
                    "question": "Captura de fotos",
                    "values": []
                },
                {
                    "label": "Observaciones 4",
                    "dataType": "FreeText",
                    "question": "Observaciones",
                    "values": []
                },
                {
                    "label": "Aop? 4",
                    "dataType": "FreeText",
                    "question": "Agregar otro producto?",
                    "values": [],
                    "selectOptions": [
                        {
                            "selected": false,
                            "other": false,
                            "value": "Si"
                        },
                        {
                            "selected": false,
                            "other": false,
                            "value": "No"
                        }
                    ]
                }
            ]
        },
        {
            "name": "Producto 13",
            "answers": [
                {
                    "label": "Proveedor 3",
                    "dataType": "FreeText",
                    "question": "Proveedor",
                    "values": []
                },
                {
                    "label": "ID PROVEEDOR 3",
                    "dataType": "FreeText",
                    "question": "ID PROVEEDOR",
                    "values": []
                },
                {
                    "label": "Producto 3",
                    "dataType": "FreeText",
                    "question": "Producto",
                    "values": []
                },
                {
                    "label": "ID PRODUCTO 3",
                    "dataType": "FreeText",
                    "question": "ID PRODUCTO",
                    "values": []
                },
                {
                    "label": "Tipo de producto 3",
                    "dataType": "FreeText",
                    "question": "Tipo de producto",
                    "values": []
                },
                {
                    "label": "Dosis 3",
                    "dataType": "Decimal",
                    "question": "Dosis",
                    "values": []
                },
                {
                    "label": "Captura de fotos 3",
                    "dataType": "Image",
                    "question": "Captura de fotos",
                    "values": []
                },
                {
                    "label": "Observaciones 3",
                    "dataType": "FreeText",
                    "question": "Observaciones",
                    "values": []
                },
                {
                    "label": "Aop? 3",
                    "dataType": "FreeText",
                    "question": "Agregar otro producto?",
                    "values": [],
                    "selectOptions": [
                        {
                            "selected": false,
                            "other": false,
                            "value": "Si"
                        },
                        {
                            "selected": false,
                            "other": false,
                            "value": "No"
                        }
                    ]
                }
            ]
        },
        {
            "name": "Producto 14",
            "answers": [
                {
                    "label": "Proveedor 2",
                    "dataType": "FreeText",
                    "question": "Proveedor",
                    "values": []
                },
                {
                    "label": "ID PROVEEDOR 2",
                    "dataType": "FreeText",
                    "question": "ID PROVEEDOR",
                    "values": []
                },
                {
                    "label": "Producto 2",
                    "dataType": "FreeText",
                    "question": "Producto",
                    "values": []
                },
                {
                    "label": "ID PRODUCTO 2",
                    "dataType": "FreeText",
                    "question": "ID PRODUCTO",
                    "values": []
                },
                {
                    "label": "Tipo de producto 2",
                    "dataType": "FreeText",
                    "question": "Tipo de producto",
                    "values": []
                },
                {
                    "label": "Dosis 2",
                    "dataType": "Decimal",
                    "question": "Dosis",
                    "values": []
                },
                {
                    "label": "Captura de fotos 2",
                    "dataType": "Image",
                    "question": "Captura de fotos",
                    "values": []
                },
                {
                    "label": "Observaciones 2",
                    "dataType": "FreeText",
                    "question": "Observaciones",
                    "values": []
                },
                {
                    "label": "Aop? 2",
                    "dataType": "FreeText",
                    "question": "Agregar otro producto?",
                    "values": [],
                    "selectOptions": [
                        {
                            "selected": false,
                            "other": false,
                            "value": "Si"
                        },
                        {
                            "selected": false,
                            "other": false,
                            "value": "No"
                        }
                    ]
                }
            ]
        },
        {
            "name": "Producto 15",
            "answers": [
                {
                    "label": "Proveedor",
                    "dataType": "FreeText",
                    "question": "Proveedor",
                    "values": []
                },
                {
                    "label": "ID PROVEEDOR 1",
                    "dataType": "FreeText",
                    "question": "ID PROVEEDOR",
                    "values": []
                },
                {
                    "label": "Producto",
                    "dataType": "FreeText",
                    "question": "Producto",
                    "values": []
                },
                {
                    "label": "ID PRODUCTO 1",
                    "dataType": "FreeText",
                    "question": "ID PRODUCTO",
                    "values": []
                },
                {
                    "label": "Tipo de producto 1",
                    "dataType": "FreeText",
                    "question": "Tipo de producto",
                    "values": []
                },
                {
                    "label": "Dosis",
                    "dataType": "Decimal",
                    "question": "Dosis",
                    "values": []
                },
                {
                    "label": "Captura de fotos",
                    "dataType": "Image",
                    "question": "Captura de fotos",
                    "values": []
                },
                {
                    "label": "Observaciones",
                    "dataType": "FreeText",
                    "question": "Observaciones",
                    "values": []
                }
            ]
        },
        {
            "name": "Observaciones Generales",
            "answers": [
                {
                    "label": "Cdfg",
                    "dataType": "Image",
                    "question": "Captura de fotos generales",
                    "values": []
                },
                {
                    "label": "OG",
                    "dataType": "FreeText",
                    "question": "Observaciones Generales",
                    "values": []
                },
                {
                    "label": "Firma 1",
                    "dataType": "Signature",
                    "question": "Firma 1",
                    "values": []
                },
                {
                    "label": "Firma 2",
                    "dataType": "Signature",
                    "question": "Firma 2",
                    "values": []
                }
            ]
        }
    ]
}